…
10. Interpret each of the estimated parameters from (10) in the context
    of this research question. That is, what do these values represent?

Now we will assess using the testing data set.

- In the code chunk below titled `train-fit-lm`, replace “verbatim” with
  “r” just before the code chunk title and update `data_test` to
  whatever R object you assigned your testing data to above.

``` r
test_aug <- augment(slr_train, new_data= test_split)
test_aug
```

    ## # A tibble: 33 × 125
    ##     year ISO_code countries  region               pf_rol_procedural pf_rol_civil
    ##    <dbl> <chr>    <chr>      <chr>                            <dbl>        <dbl>
    ##  1  2016 DZA      Algeria    Middle East & North…             NA           NA   
    ##  2  2016 AGO      Angola     Sub-Saharan Africa               NA           NA   
    ##  3  2016 BHR      Bahrain    Middle East & North…             NA           NA   
    ##  4  2016 BLZ      Belize     Latin America & the…              4.75         4.74
    ##  5  2016 BOL      Bolivia    Latin America & the…              3.70         3.36
    ##  6  2016 BWA      Botswana   Sub-Saharan Africa                5.33         6.06
    ##  7  2016 CAN      Canada     North America                     8.62         7.18
    ##  8  2016 CPV      Cape Verde Sub-Saharan Africa               NA           NA   
    ##  9  2016 CHN      China      East Asia                         3.95         5.38
    ## 10  2016 EGY      Egypt      Middle East & North…              2.95         3.76
    ## # ℹ 23 more rows
    ## # ℹ 119 more variables: pf_rol_criminal <dbl>, pf_rol <dbl>,
    ## #   pf_ss_homicide <dbl>, pf_ss_disappearances_disap <dbl>,
    ## #   pf_ss_disappearances_violent <dbl>, pf_ss_disappearances_organized <dbl>,
    ## #   pf_ss_disappearances_fatalities <dbl>, pf_ss_disappearances_injuries <dbl>,
    ## #   pf_ss_disappearances <dbl>, pf_ss_women_fgm <dbl>,
    ## #   pf_ss_women_missing <dbl>, pf_ss_women_inheritance_widows <dbl>, …
…
In order to do these checks we need access to the fitted (predicted)
values and the residuals. We can use `broom::augment` to calculate
these.

- In the code chunk below titled `augment`, replace “verbatim” with “r”
  just before the code chunk title and update `data_test` to whatever R
  object you assigned your testing data to above.

``` r
train_aug <- augment(slr_train, new_data = train_split)
train_aug
```

    ## # A tibble: 129 × 125
    ##     year ISO_code countries      region           pf_rol_procedural pf_rol_civil
    ##    <dbl> <chr>    <chr>          <chr>                        <dbl>        <dbl>
    ##  1  2016 VNM      Vietnam        South Asia                    5.38         4.45
    ##  2  2016 BEL      Belgium        Western Europe                8.67         7.34
    ##  3  2016 FIN      Finland        Western Europe                9.50         7.96
    ##  4  2016 PER      Peru           Latin America &…              6.17         4.41
    ##  5  2016 DOM      Dominican Rep. Latin America &…              5.24         4.54
    ##  6  2016 ZMB      Zambia         Sub-Saharan Afr…              3.30         4.89
    ##  7  2016 ZWE      Zimbabwe       Sub-Saharan Afr…              2.43         4.33
    ##  8  2016 UKR      Ukraine        Eastern Europe                4.77         5.14
    ##  9  2016 MKD      Macedonia      Eastern Europe                4.68         5.63
    ## 10  2016 MDG      Madagascar     Sub-Saharan Afr…              3.33         3.93
    ## # ℹ 119 more rows
    ## # ℹ 119 more variables: pf_rol_criminal <dbl>, pf_rol <dbl>,
    ## #   pf_ss_homicide <dbl>, pf_ss_disappearances_disap <dbl>,
    ## #   pf_ss_disappearances_violent <dbl>, pf_ss_disappearances_organized <dbl>,
    ## #   pf_ss_disappearances_fatalities <dbl>, pf_ss_disappearances_injuries <dbl>,
    ## #   pf_ss_disappearances <dbl>, pf_ss_women_fgm <dbl>,
    ## #   pf_ss_women_missing <dbl>, pf_ss_women_inheritance_widows <dbl>, …
…
